{
    // The tab key will cycle through the settings when first created
    // Visit http://wbond.net/sublime_packages/sftp/settings for help
    
    // sftp, ftp or ftps
    "type": "sftp",

    //"sync_down_on_open": true,
	//"save_before_upload": true,
    "upload_on_save": true,
    
    "host": "localhost",
    "user": "dan",
    "password": "adidas86",
    //"port": "22",
    
    "remote_path": "/Applications/MAMP/htdocs/wordpress/wp-content/themes/wp-boilerplate/",
    //"file_permissions": "664",
    //"dir_permissions": "775",
    
    //"extra_list_connections": 0,

    "connect_timeout": 30,
    //"keepalive": 120,
    //"ftp_passive_mode": true,
    //"ssh_key_file": "~/.ssh/id_rsa",
    //"sftp_flags": ["-F", "/path/to/ssh_config"],
    
    //"preserve_modification_times": false,
    //"remote_time_offset_in_hours": 0,
    //"remote_encoding": "utf-8",
    //"remote_locale": "C",
}